%YAML 1.1
%TAG !u! tag:unity3d.com,2011:
--- !u!114 &11400000
MonoBehaviour:
  m_ObjectHideFlags: 0
  m_CorrespondingSourceObject: {fileID: 0}
  m_PrefabInstance: {fileID: 0}
  m_PrefabAsset: {fileID: 0}
  m_GameObject: {fileID: 0}
  m_Enabled: 1
  m_EditorHideFlags: 0
  m_Script: {fileID: 11500000, guid: 54648ed2b1e27724890258bfc3275b0a, type: 3}
  m_Name: PlayerData
  m_EditorClassIdentifier: 
  id: player_data
  pools: {fileID: 11400000, guid: 235d058fab7f04448b655ba904c87fc9, type: 2}
  ticker: {fileID: 11400000, guid: 48a87599def3a3f46a5b0ff71e3707bc, type: 2}
  earlyTick: 0
  tick: 0
  lateTick: 0
  fixedTick: 0
  mass: 1
  gravityEffectRange: 0
  maxForce: 100
